﻿{
  "editable": true,
  "deletable": true,
  "insertable": true,

  "gridOptions": {
    "columnDefs": [
      {
        "name": "C",
        "displayName": "Code",
        "field": "Code",
        "editable": "new"
      },

      {
        "name": "N",
        "displayName": "Description",
        "field": "Description"
      },
      {
        "name": "G",
        "displayName": "Govt",
        "lookup":  "authorityGovts",
        "field": "Group"
      },
      {
        "name": "RV",
        "displayName": "Timestamp",
        "field": "Rowversion",
        "editable": false
      }

    ]
  }
}
