{
	"gridOptions": {
		"columnDefs": [
			{
				"cellClass": null,
				"cellFilter": null,
				"cellTemplate": null,
				"cellTooltip": false,
				"displayName": "code Code",
				"enableColumnMenu": false,
				"enableColumnMenus": false,
				"enableFiltering": false,
				"enableHiding": false,
				"enableSorting": false,
				"field": "Code",
				"filter": null,
				"filterCellFiltered": false,
				"filterHeaderTemplate": false,
				"filters": null,
				"footerCellClass": null,
				"footerCellFilter": null,
				"footerCellTemplate": null,
				"headerCellClass": null,
				"headerCellFilter": null,
				"headerCellTemplate": null,
				"headerTooltip": null,
				"maxWidth": 0,
				"minWidth": 0,
				"name": "Code",
				"sortCellFiltered": false,
				"suppressRemoveSort": false,
				"type": null,
				"visible": true,
				"width": 200,
				"cellEditableCondition": false,
				"editDropdownFilter": null,
				"editDropdownIdLabel": null,
				"editDropdownValueLabel": null,
				"editableCellTemplate": null,
				"enableCellEdit": null,
				"enableCellEditOnFocus": false,
				"maxlength": 20,
				"lookup": null,
				"description": null
			},
			{
				"cellClass": null,
				"cellFilter": null,
				"cellTemplate": null,
				"cellTooltip": false,
				"displayName": "Seq",
				"enableColumnMenu": false,
				"enableColumnMenus": false,
				"enableFiltering": false,
				"enableHiding": false,
				"enableSorting": false,
				"field": "Seq",
				"filter": null,
				"filterCellFiltered": false,
				"filterHeaderTemplate": false,
				"filters": null,
				"footerCellClass": null,
				"footerCellFilter": null,
				"footerCellTemplate": null,
				"headerCellClass": null,
				"headerCellFilter": null,
				"headerCellTemplate": null,
				"headerTooltip": null,
				"maxWidth": 0,
				"minWidth": 0,
				"name": "Seq",
				"sortCellFiltered": false,
				"suppressRemoveSort": false,
				"type": null,
				"visible": true,
				"width": 100,
				"cellEditableCondition": false,
				"editDropdownFilter": null,
				"editDropdownIdLabel": null,
				"editDropdownValueLabel": null,
				"editableCellTemplate": null,
				"enableCellEdit": null,
				"enableCellEditOnFocus": false,
				"maxlength": null,
				"lookup": null,
				"description": null
			},
			{
				"cellClass": null,
				"cellFilter": null,
				"cellTemplate": null,
				"cellTooltip": false,
				"displayName": "Description",
				"enableColumnMenu": false,
				"enableColumnMenus": false,
				"enableFiltering": false,
				"enableHiding": false,
				"enableSorting": false,
				"field": "Description",
				"filter": null,
				"filterCellFiltered": false,
				"filterHeaderTemplate": false,
				"filters": null,
				"footerCellClass": null,
				"footerCellFilter": null,
				"footerCellTemplate": null,
				"headerCellClass": null,
				"headerCellFilter": null,
				"headerCellTemplate": null,
				"headerTooltip": null,
				"maxWidth": 0,
				"minWidth": 0,
				"name": "Description",
				"sortCellFiltered": false,
				"suppressRemoveSort": false,
				"type": null,
				"visible": true,
				"width": 200,
				"cellEditableCondition": false,
				"editDropdownFilter": null,
				"editDropdownIdLabel": null,
				"editDropdownValueLabel": null,
				"editableCellTemplate": null,
				"enableCellEdit": null,
				"enableCellEditOnFocus": false,
				"maxlength": 50,
				"lookup": null,
				"description": null
			},
			{
				"cellClass": "gdAlignCenter",
				"cellFilter": "tick",
				"cellTemplate": null,
				"cellTooltip": false,
				"displayName": "Ed Qual?",
				"enableColumnMenu": false,
				"enableColumnMenus": false,
				"enableFiltering": false,
				"enableHiding": false,
				"enableSorting": false,
				"field": "codeTeach",
				"filter": null,
				"filterCellFiltered": false,
				"filterHeaderTemplate": false,
				"filters": null,
				"footerCellClass": null,
				"footerCellFilter": null,
				"footerCellTemplate": null,
				"headerCellClass": null,
				"headerCellFilter": null,
				"headerCellTemplate": null,
				"headerTooltip": null,
				"maxWidth": 0,
				"minWidth": 0,
				"name": "codeTeach",
				"sortCellFiltered": false,
				"suppressRemoveSort": false,
				"type": null,
				"visible": true,
				"width": 100,
				"cellEditableCondition": false,
				"editDropdownFilter": null,
				"editDropdownIdLabel": null,
				"editDropdownValueLabel": null,
				"editableCellTemplate": "uigrid/booleanEditor",
				"enableCellEdit": null,
				"enableCellEditOnFocus": false,
				"maxlength": null,
				"lookup": null,
				"description": "Tick if this is an Education qualification"
			},
			{
				"cellClass": "gdAlignCenter",
				"cellFilter": "tick",
				"cellTemplate": null,
				"cellTooltip": false,
				"displayName": "Qualified",
				"enableColumnMenu": false,
				"enableColumnMenus": false,
				"enableFiltering": false,
				"enableHiding": false,
				"enableSorting": false,
				"field": "codeQualified",
				"filter": null,
				"filterCellFiltered": false,
				"filterHeaderTemplate": false,
				"filters": null,
				"footerCellClass": null,
				"footerCellFilter": null,
				"footerCellTemplate": null,
				"headerCellClass": null,
				"headerCellFilter": null,
				"headerCellTemplate": null,
				"headerTooltip": null,
				"maxWidth": 0,
				"minWidth": 0,
				"name": "Qualified",
				"sortCellFiltered": false,
				"suppressRemoveSort": false,
				"type": null,
				"visible": true,
				"width": 100,
				"cellEditableCondition": false,
				"editDropdownFilter": null,
				"editDropdownIdLabel": null,
				"editDropdownValueLabel": null,
				"editableCellTemplate": "uigrid/booleanEditor",
				"enableCellEdit": null,
				"enableCellEditOnFocus": false,
				"maxlength": null,
				"lookup": null,
				"description": null
			},
			{
				"cellClass": "gdAlignCenter",
				"cellFilter": "tick",
				"cellTemplate": null,
				"cellTooltip": false,
				"displayName": "Certified",
				"enableColumnMenu": false,
				"enableColumnMenus": false,
				"enableFiltering": false,
				"enableHiding": false,
				"enableSorting": false,
				"field": "codeCertified",
				"filter": null,
				"filterCellFiltered": false,
				"filterHeaderTemplate": false,
				"filters": null,
				"footerCellClass": null,
				"footerCellFilter": null,
				"footerCellTemplate": null,
				"headerCellClass": null,
				"headerCellFilter": null,
				"headerCellTemplate": null,
				"headerTooltip": null,
				"maxWidth": 0,
				"minWidth": 0,
				"name": "codeCertified",
				"sortCellFiltered": false,
				"suppressRemoveSort": false,
				"type": null,
				"visible": true,
				"width": 100,
				"cellEditableCondition": false,
				"editDropdownFilter": null,
				"editDropdownIdLabel": null,
				"editDropdownValueLabel": null,
				"editableCellTemplate": "uigrid/booleanEditor",
				"enableCellEdit": null,
				"enableCellEditOnFocus": false,
				"maxlength": null,
				"lookup": null,
				"description": null
			},
			{
				"cellClass": "gdAlignCenter",
				"cellFilter": "tick",
				"cellTemplate": null,
				"cellTooltip": false,
				"displayName": "In Service",
				"enableColumnMenu": false,
				"enableColumnMenus": false,
				"enableFiltering": false,
				"enableHiding": false,
				"enableSorting": false,
				"field": "codeInService",
				"filter": null,
				"filterCellFiltered": false,
				"filterHeaderTemplate": false,
				"filters": null,
				"footerCellClass": null,
				"footerCellFilter": null,
				"footerCellTemplate": null,
				"headerCellClass": null,
				"headerCellFilter": null,
				"headerCellTemplate": null,
				"headerTooltip": null,
				"maxWidth": 0,
				"minWidth": 0,
				"name": "codeInService",
				"sortCellFiltered": false,
				"suppressRemoveSort": false,
				"type": "mdcheck",
				"visible": true,
				"width": 100,
				"cellEditableCondition": false,
				"editDropdownFilter": null,
				"editDropdownIdLabel": null,
				"editDropdownValueLabel": null,
				"editableCellTemplate": "uigrid/booleanEditor?param=1",
				"enableCellEdit": null,
				"enableCellEditOnFocus": false,
				"maxlength": null,
				"lookup": null,
				"description": null
			},
			{
				"cellClass": null,
				"cellFilter": null,
				"cellTemplate": null,
				"cellTooltip": false,
				"displayName": "Expiry (years)",
				"enableColumnMenu": false,
				"enableColumnMenus": false,
				"enableFiltering": false,
				"enableHiding": false,
				"enableSorting": false,
				"field": "codeDurationYears",
				"filter": null,
				"filterCellFiltered": false,
				"filterHeaderTemplate": false,
				"filters": null,
				"footerCellClass": null,
				"footerCellFilter": null,
				"footerCellTemplate": null,
				"headerCellClass": null,
				"headerCellFilter": null,
				"headerCellTemplate": null,
				"headerTooltip": null,
				"maxWidth": 0,
				"minWidth": 0,
				"name": "codeDurationYears",
				"sortCellFiltered": false,
				"suppressRemoveSort": false,
				"type": "number",
				"visible": true,
				"width": 100,
				"cellEditableCondition": false,
				"editDropdownFilter": null,
				"editDropdownIdLabel": null,
				"editDropdownValueLabel": null,
				"editableCellTemplate": null,
				"enableCellEdit": null,
				"enableCellEditOnFocus": false,
				"maxlength": null,
				"lookup": null,
				"description": "The number of years for which certification is current"
			},
			{
				"cellClass": null,
				"cellFilter": null,
				"cellTemplate": null,
				"cellTooltip": false,
				"displayName": "Code Group",
				"enableColumnMenu": false,
				"enableColumnMenus": false,
				"enableFiltering": false,
				"enableHiding": false,
				"enableSorting": false,
				"field": "codeGroup",
				"filter": null,
				"filterCellFiltered": false,
				"filterHeaderTemplate": false,
				"filters": null,
				"footerCellClass": null,
				"footerCellFilter": null,
				"footerCellTemplate": null,
				"headerCellClass": null,
				"headerCellFilter": null,
				"headerCellTemplate": null,
				"headerTooltip": null,
				"maxWidth": 0,
				"minWidth": 0,
				"name": "codeGroup",
				"sortCellFiltered": false,
				"suppressRemoveSort": false,
				"type": null,
				"visible": true,
				"width": 200,
				"cellEditableCondition": false,
				"editDropdownFilter": null,
				"editDropdownIdLabel": null,
				"editDropdownValueLabel": null,
				"editableCellTemplate": null,
				"enableCellEdit": null,
				"enableCellEditOnFocus": false,
				"maxlength": 50,
				"lookup": null,
				"description": null
			},
			{
				"cellClass": "gdAlignCenter",
				"cellFilter": "tick",
				"cellTemplate": null,
				"cellTooltip": false,
				"displayName": "SpEd Qual?",
				"enableColumnMenu": false,
				"enableColumnMenus": false,
				"enableFiltering": false,
				"enableHiding": false,
				"enableSorting": false,
				"field": "codeSpEdTeach",
				"filter": null,
				"filterCellFiltered": false,
				"filterHeaderTemplate": false,
				"filters": null,
				"footerCellClass": null,
				"footerCellFilter": null,
				"footerCellTemplate": null,
				"headerCellClass": null,
				"headerCellFilter": null,
				"headerCellTemplate": null,
				"headerTooltip": null,
				"maxWidth": 0,
				"minWidth": 0,
				"name": "codeSpEdTeach",
				"sortCellFiltered": false,
				"suppressRemoveSort": false,
				"type": null,
				"visible": true,
				"width": 100,
				"cellEditableCondition": false,
				"editDropdownFilter": null,
				"editDropdownIdLabel": null,
				"editDropdownValueLabel": null,
				"editableCellTemplate": "uigrid/booleanEditor",
				"enableCellEdit": null,
				"enableCellEditOnFocus": false,
				"maxlength": null,
				"lookup": null,
				"description": "Tick if this is an Special Education qualification"
			},
			{
				"cellClass": "gdAlignCenter",
				"cellFilter": "tick",
				"cellTemplate": null,
				"cellTooltip": false,
				"displayName": "SpEd Qualified",
				"enableColumnMenu": false,
				"enableColumnMenus": false,
				"enableFiltering": false,
				"enableHiding": false,
				"enableSorting": false,
				"field": "codeSpEdQualified",
				"filter": null,
				"filterCellFiltered": false,
				"filterHeaderTemplate": false,
				"filters": null,
				"footerCellClass": null,
				"footerCellFilter": null,
				"footerCellTemplate": null,
				"headerCellClass": null,
				"headerCellFilter": null,
				"headerCellTemplate": null,
				"headerTooltip": null,
				"maxWidth": 0,
				"minWidth": 0,
				"name": "SpEd Qualified",
				"sortCellFiltered": false,
				"suppressRemoveSort": false,
				"type": null,
				"visible": true,
				"width": 100,
				"cellEditableCondition": false,
				"editDropdownFilter": null,
				"editDropdownIdLabel": null,
				"editDropdownValueLabel": null,
				"editableCellTemplate": "uigrid/booleanEditor",
				"enableCellEdit": null,
				"enableCellEditOnFocus": false,
				"maxlength": null,
				"lookup": null,
				"description": null
			},
			{
				"cellClass": "gdAlignCenter",
				"cellFilter": "tick",
				"cellTemplate": null,
				"cellTooltip": false,
				"displayName": "Certified",
				"enableColumnMenu": false,
				"enableColumnMenus": false,
				"enableFiltering": false,
				"enableHiding": false,
				"enableSorting": false,
				"field": "codeSpEdCertified",
				"filter": null,
				"filterCellFiltered": false,
				"filterHeaderTemplate": false,
				"filters": null,
				"footerCellClass": null,
				"footerCellFilter": null,
				"footerCellTemplate": null,
				"headerCellClass": null,
				"headerCellFilter": null,
				"headerCellTemplate": null,
				"headerTooltip": null,
				"maxWidth": 0,
				"minWidth": 0,
				"name": "codeSpEdCertified",
				"sortCellFiltered": false,
				"suppressRemoveSort": false,
				"type": null,
				"visible": true,
				"width": 100,
				"cellEditableCondition": false,
				"editDropdownFilter": null,
				"editDropdownIdLabel": null,
				"editDropdownValueLabel": null,
				"editableCellTemplate": "uigrid/booleanEditor",
				"enableCellEdit": null,
				"enableCellEditOnFocus": false,
				"maxlength": null,
				"lookup": null,
				"description": null
			},
			{
				"cellClass": null,
				"cellFilter": null,
				"cellTemplate": null,
				"cellTooltip": false,
				"displayName": "Description L1",
				"enableColumnMenu": false,
				"enableColumnMenus": false,
				"enableFiltering": false,
				"enableHiding": false,
				"enableSorting": false,
				"field": "DescriptionL1",
				"filter": null,
				"filterCellFiltered": false,
				"filterHeaderTemplate": false,
				"filters": null,
				"footerCellClass": null,
				"footerCellFilter": null,
				"footerCellTemplate": null,
				"headerCellClass": null,
				"headerCellFilter": null,
				"headerCellTemplate": null,
				"headerTooltip": null,
				"maxWidth": 0,
				"minWidth": 0,
				"name": "DescriptionL1",
				"sortCellFiltered": false,
				"suppressRemoveSort": false,
				"type": null,
				"visible": true,
				"width": 500,
				"cellEditableCondition": false,
				"editDropdownFilter": null,
				"editDropdownIdLabel": null,
				"editDropdownValueLabel": null,
				"editableCellTemplate": null,
				"enableCellEdit": null,
				"enableCellEditOnFocus": false,
				"maxlength": 500,
				"lookup": null,
				"description": null
			},
			{
				"cellClass": null,
				"cellFilter": null,
				"cellTemplate": null,
				"cellTooltip": false,
				"displayName": "Description L2",
				"enableColumnMenu": false,
				"enableColumnMenus": false,
				"enableFiltering": false,
				"enableHiding": false,
				"enableSorting": false,
				"field": "DescriptionL2",
				"filter": null,
				"filterCellFiltered": false,
				"filterHeaderTemplate": false,
				"filters": null,
				"footerCellClass": null,
				"footerCellFilter": null,
				"footerCellTemplate": null,
				"headerCellClass": null,
				"headerCellFilter": null,
				"headerCellTemplate": null,
				"headerTooltip": null,
				"maxWidth": 0,
				"minWidth": 0,
				"name": "DescriptionL2",
				"sortCellFiltered": false,
				"suppressRemoveSort": false,
				"type": null,
				"visible": true,
				"width": 500,
				"cellEditableCondition": false,
				"editDropdownFilter": null,
				"editDropdownIdLabel": null,
				"editDropdownValueLabel": null,
				"editableCellTemplate": null,
				"enableCellEdit": null,
				"enableCellEditOnFocus": false,
				"maxlength": 500,
				"lookup": null,
				"description": null
			}
		],
		"enablePagination": false,
		"enablePaginationControls": false
	},
	"editable": true,
	"deletable": true,
	"insertable": true
}